데이터 가져오기
…
1.2 pin_find(): CRAN

pin_find() 동사를 사용해서 CRAN, 캐글, RStudio Connect 에 산재된 자원을 검색할 수 있다. 먼저 packages에 산재된 데이터 중 cars 검색어를 포함된 데이터를 검색해보자.

pin_find("cars", board="packages")

# A tibble: 38 x 4
   name            description                                 type  board 
   <chr>           <chr>                                       <chr> <chr> 
 1 bestNormalize/… Prices of 6,283 cars listed on Autotrader … table packa…
 2 BSDA/Jdpower    Number of problems reported per 100 cars i… table packa…
 3 BSDA/Marked     Percent of marked cars in 65 police depart… table packa…
 4 BSDA/Supercar   Top speeds attained by five makes of super… table packa…
 5 caret/cars      Kelly Blue Book resale data for 2005 model… table packa…
 6 CornerstoneR/c… Data from carstats from CornerstoneR packa… table packa…
 7 DAAG/Cars93.su… A Summary of the Cars93 Data set from DAAG… table packa…
 8 DAAG/modelcars  Model Car Data from DAAG package.           table packa…
 9 DAAG/toycars    Toy Cars Data from DAAG package.            table packa…
10 dobson/Cars     Cars data from table 8.1 from dobson packa… table packa…
# … with 28 more rows

<소유자>/<명칭> 형태로 데이터가 준비되어 있어 이를 pin_get() 동사를 사용해서 가져온다.

pin_get("UsingR/carsafety")

# A tibble: 33 x 4
   Make.model              type       Driver.deaths Other.deaths
   <fct>                   <fct>              <dbl>        <dbl>
 1 Toyota Avalon           large                 40           20
 2 Chrysler Town & Country minivan               31           36
 3 Toyota Camry            midsize               41           29
 4 Volkswagen jetta        subcompact            47           23
 5 Ford Windstar           minivan               37           35
 6 Nissan Maxima           midsize               53           26
 7 Honda Accord            midsize               54           27
 8 Chevrolet Venture       minivan               51           34
 9 Buick Century           midsize               70           23
10 Subura Outback          compact               74           24
# … with 23 more rows
…
board_register_kaggle(token="~/Downloads/kaggle.json")
pin_find("cars", board="kaggle") %>%  DT::datatable()

pin_get() 동사를 통해서 캐글 데이터를 수월하게 얻을 수 있게 된다.

cars_kaggle <- pin_get("orgesleka/used-cars-database")
cars_kaggle

[1] "/Users/statkclee/Library/Caches/pins/kaggle/orgesleka/used-cars-database/autos.csv"                                                 
[2] "/Users/statkclee/Library/Caches/pins/kaggle/orgesleka/used-cars-database/cnt_km_year_powerPS_minPrice_maxPrice_avgPrice_sdPrice.csv"

read_csv(cars_kaggle[1])

# A tibble: 354,687 x 20
   dateCrawled         name  seller offerType price abtest vehicleType
   <dttm>              <chr> <chr>  <chr>     <dbl> <chr>  <chr>      
 1 2016-03-24 11:52:17 Golf… privat Angebot     480 test   <NA>       
 2 2016-03-24 10:58:45 A5_S… privat Angebot   18300 test   coupe      
 3 2016-03-14 12:52:21 "Jee… privat Angebot    9800 test   suv        
 4 2016-03-17 16:54:04 "GOL… privat Angebot    1500 test   kleinwagen 
 5 2016-03-31 17:25:20 Skod… privat Angebot    3600 test   kleinwagen 
 6 2016-04-04 17:36:23 BMW_… privat Angebot     650 test   limousine  
 7 2016-04-01 20:48:51 Peug… privat Angebot    2200 test   cabrio     
 8 2016-03-21 18:54:38 VW_D… privat Angebot       0 test   limousine  
 9 2016-04-04 23:42:13 Ford… privat Angebot   14500 contr… bus        
10 2016-03-17 10:53:50 VW_G… privat Angebot     999 test   kleinwagen 
# … with 354,677 more rows, and 13 more variables:
#   yearOfRegistration <dbl>, gearbox <chr>, powerPS <dbl>, model <chr>,
#   kilometer <dbl>, monthOfRegistration <dbl>, fuelType <chr>,
#   brand <chr>, notRepairedDamage <chr>, dateCreated <dttm>,
#   nrOfPictures <dbl>, postalCode <chr>, lastSeen <dttm>
…
