데이터 가져오기 (Ingestion)
…
is_link(): 링크인지 확인

3 기본 사용법

dir_info() 함수를 통해서 특정 파일크기(1MB) 이상인 파일을 내림차순으로 뽑아내고 필요한 정보만 추출한다.

library(tidyverse)
library(fs)

dir_info(path = '.', recurse = TRUE) %>% 
  filter(type =="file", size > "1MB") %>% 
  arrange(desc(size)) %>%
  select(path, permissions, size, modification_time)

# A tibble: 23 x 4
   path                          permissions       size modification_time  
   <fs::path>                    <fs::perms> <fs::byte> <dttm>             
 1 dynamic-webpage-selenium.html rw-              6.85M 2019-04-30 17:48:23
 2 static-webpage-table-2018.ht~ rw-              4.25M 2019-04-30 17:48:24
 3 static-webpage-table.html     rw-              4.19M 2019-04-30 17:48:24
 4 naver-people-info.html        rw-               3.3M 2019-04-30 17:48:24
 5 daum-related-search.html      rw-              2.81M 2019-04-30 17:48:22
 6 google-suggest.html           rw-              2.53M 2019-04-30 17:48:23
 7 fig/imac_rselenium.gif        rw-              2.27M 2019-04-30 17:48:23
 8 ingest-ocr-ppt.html           rw-              2.22M 2019-11-15 14:08:16
 9 fig/RSelenium_with_firefox.g~ rw-              2.16M 2019-04-30 17:48:23
10 cctv-sokcho.html              rw-              1.82M 2019-08-07 18:38:46
# ... with 13 more rows

현재 작업 프로젝트에 대해서 디렉토리별로 얼마마큼 파일이 있는지 파악하고자 할 때 다음과 같이 group_by를 사용해서 path_dir()로 추출된 디렉토리별로 합계를 구한다.

dir_info(path = ".", recursive = TRUE) %>%
  group_by(directory = path_dir(path)) %>%
  summarise(size = sum(size)) %>% 
  arrange(desc(size))

# A tibble: 40 x 2
   directory                                                           size
   <chr>                                                         <fs::byte>
 1 .                                                                 44.99M
 2 fig                                                                7.48M
 3 dynamic-webpage-imac_files/bootstrap-3.3.5/css                      2.2M
 4 data/weather                                                       1.65M
 5 dynamic-webpage-imac_files/trelliscopejs_widget-0.1.20              1.3M
 6 dynamic-webpage-imac_files/trelliscopejs_widget-binding-0.1.~       1.3M
 7 dynamic-webpage-imac_files/trelliscopejs_widget-binding-0.1.~       1.3M
 8 dynamic-webpage-imac_files/bootstrap-3.3.5/css/fonts             953.23K
 9 dynamic-webpage-imac_files/jqueryui-1.11.4                       741.98K
10 css/bootstrap                                                    581.76K
# ... with 30 more rows
…
