데이터 가져오기
…
srt_text <- srt_raw_text[srt_raw_text != ""]

srt_text[1:10]

 [1] "1"                                  "00:01:25,210 --> 00:01:28,004"     
 [3] "I owe everything to George Bailey." "2"                                 
 [5] "00:01:28,422 --> 00:01:30,298"      "Help him, dear Father."            
 [7] "3"                                  "00:01:30,674 --> 00:01:33,718"     
 [9] "Joseph, Jesus and Mary,"            "4"                                 

read_srt() 함수는 .srt 파일을 사용해서 깔끔한 데이터로 변환시켜 후속 작업을 수월히 진행시킬 수 있도록 시간을 많이 단축해 준다.

(wonderful_life <- read_srt(path = srt, collapse = " "))

# A tibble: 2,268 x 4
       n start   end subtitle                           
   <int> <dbl> <dbl> <chr>                              
 1     1  85.2  88.0 I owe everything to George Bailey. 
 2     2  88.4  90.3 Help him, dear Father.             
 3     3  90.7  93.7 Joseph, Jesus and Mary,            
 4     4  93.8  96.4 help my friend Mr. Bailey.         
 5     5  96.9  99.5 Help my son George tonight.        
 6     6 100.  102.  He never thinks about himself, God.
 7     7 102.  104.  That's why he's in trouble.        
 8     8 104.  105.  George is a good guy.              
 9     9 106.  108.  Give him a break, God.             
10    10 108.  110.  I love him, dear Lord.             
# ... with 2,258 more rows
…
