다양한 데이터 가져오기
…
httpuv: 웹브라우저를 통해 트위터 API를 인증할 수 있게 함. 따라서, 별도 트위터 개발자 페이지에 접속해서 인증키를 받아 이를 활용할 필요가 없어짐.

rtweet: 트위터 API에서 데이터를 추출해서 분석이 가능한 형태의 데이터프레임으로 가공하여 반환시킴

설치는 install.packages("rtweet")으로 하면 쉽게 설치되고 별도 인증절차 없이 처음 브라우저 인증을 위한 과정만 추가된다. 이후 search_tweets() 등 함수를 사용해서 트위터 API에서 데이터를 수집하면 된다.

# 0. 환경설정 -----
library(rtweet)  # install.packages("rtweet")
library(tidyverse)

tidyverse_tw <- search_tweets("#tidyverse", n = 100, include_rts = TRUE, lang = "en")
tidyverse_tw

# A tibble: 100 x 90
   user_id status_id created_at          screen_name text  source
   <chr>   <chr>     <dttm>              <chr>       <chr> <chr> 
 1 176548… 12118861… 2019-12-31 05:45:48 ohebie      "I m… Twitt…
 2 101181… 12118436… 2019-12-31 02:57:00 rstatstweet "I m… rstat…
 3 101181… 12104558… 2019-12-27 07:02:21 rstatstweet geom… rstat…
 4 101181… 12104446… 2019-12-27 06:17:39 rstatstweet Usin… rstat…
 5 101181… 12105724… 2019-12-27 14:45:46 rstatstweet Chan… rstat…
 6 101181… 12105724… 2019-12-27 14:45:46 rstatstweet R- m… rstat…
 7 101181… 12105724… 2019-12-27 14:45:45 rstatstweet Noth… rstat…
 8 101181… 12106026… 2019-12-27 16:45:29 rstatstweet Comp… rstat…
 9 101181… 12116549… 2019-12-30 14:26:56 rstatstweet What… rstat…
10 101181… 12107115… 2019-12-27 23:58:28 rstatstweet Hey … rstat…
# … with 90 more rows, and 84 more variables: display_text_width <dbl>,
#   reply_to_status_id <chr>, reply_to_user_id <chr>,
#   reply_to_screen_name <chr>, is_quote <lgl>, is_retweet <lgl>,
#   favorite_count <int>, retweet_count <int>, quote_count <int>,
#   reply_count <int>, hashtags <list>, symbols <list>, urls_url <list>,
#   urls_t.co <list>, urls_expanded_url <list>, media_url <list>,
#   media_t.co <list>, media_expanded_url <list>, media_type <list>,
#   ext_media_url <list>, ext_media_t.co <list>,
#   ext_media_expanded_url <list>, ext_media_type <chr>,
…
library(glue)

korea_woeid <- availabel_trends %>% 
  filter(countryCode == "KR", woeid == 23424868) %>% 
  select(woeid) %>% 
  pull(woeid)

korea_trend <- get_trends(korea_woeid)

korea_trend %>% 
  group_by(trend) %>% 
  summarise(mean_tweet_volume = mean(tweet_volume, na.rm = TRUE)) %>% 
  arrange(desc(mean_tweet_volume))

# A tibble: 50 x 2
   trend              mean_tweet_volume
   <chr>                          <dbl>
 1 파트라                         22796
 2 #T1WIN                           NaN
 3 #별명만들기                      NaN
 4 #카이_스포일러                   NaN
 5 강원기                           NaN
 6 강의 재개                        NaN
 7 곰표패딩                         NaN
 8 국민의 신뢰                      NaN
 9 국민의 정치적 선택               NaN
10 그란디스                         NaN
# … with 40 more rows
…
5 활동성 - #CloudComputing

#CloudComputing을 가장 많이 언급하는 트윗 사용자를 찾아보자. 이를 위해서 먼저 search_tweets() 함수로 해쉬태그 “#CloudComputing”을 넣고 screen_name을 기준으로 트윗횟수를 세어본다.

cloud_twts <- search_tweets("#CloudComputing", n=1800)

cloud_twts %>% 
  count(screen_name, name="트윗수", sort=TRUE)

# A tibble: 845 x 2
   screen_name     트윗수
   <chr>            <int>
 1 LlnuxBot            70
 2 IAM__Network        67
 3 byte_code_          51
 4 ServerlessFan       36
 5 chidambara09        34
 6 cybersec_feeds      25
 7 rstatstweet         25
 8 reversepython       23
 9 DeepSingularity     20
10 gp_pulipaka         20
# … with 835 more rows
…
